DEseq2 Tutorial
…
What does the original data look like?

# gene raw counts
as_tibble(cts)

## # A tibble: 14,599 x 7
##    untreated1 untreated2 untreated3 untreated4 treated1 treated2 treated3
##         <int>      <int>      <int>      <int>    <int>    <int>    <int>
##  1          0          0          0          0        0        0        1
##  2         92        161         76         70      140       88       70
##  3          5          1          0          0        4        0        0
##  4          0          2          1          2        1        0        0
##  5       4664       8714       3564       3150     6205     3072     3334
##  6        583        761        245        310      722      299      308
##  7          0          1          0          0        0        0        0
##  8         10         11          3          3       10        7        5
##  9          0          1          0          0        0        1        1
## 10       1446       1713        615        672     1698      696      757
## #  with 14,589 more rows
…
By default it would output the shrunken table always, as defined by degDefault, that contains the default table to get. To get the original results table, use the parameter as this:

deg(degs[[1]], "raw", "tibble")

## # A tibble: 9,921 x 7
##    gene        baseMean log2FoldChange  lfcSE  stat    pvalue      padj
##    <chr>          <dbl>          <dbl>  <dbl> <dbl>     <dbl>     <dbl>
##  1 FBgn0039155     731.          -4.62 0.169  -27.3 3.24e-164 2.72e-160
##  2 FBgn0025111    1501.           2.90 0.127   22.8 9.07e-115 3.80e-111
##  3 FBgn0029167    3706.          -2.20 0.0979 -22.4 1.72e-111 4.81e-108
##  4 FBgn0003360    4343.          -3.18 0.144  -22.1 1.12e-108 2.36e-105
##  5 FBgn0035085     638.          -2.56 0.138  -18.6 4.87e- 77 8.16e- 74
##  6 FBgn0039827     262.          -4.16 0.233  -17.9 1.27e- 71 1.78e- 68
##  7 FBgn0034736     226.          -3.51 0.215  -16.3 4.37e- 60 5.23e- 57
##  8 FBgn0029896     490.          -2.44 0.152  -16.1 4.68e- 58 4.90e- 55
##  9 FBgn0000071     342.           2.68 0.182   14.7 7.46e- 49 6.95e- 46
## 10 FBgn0051092     153.           2.33 0.177   13.1 2.07e- 39 1.73e- 36
## #  with 9,911 more rows
…
significants(degs, fc = 0, fdr = 0.05, full = TRUE)

## Warning: Unquoting language objects with `!!!` is deprecated as of rlang 0.4.0.
## Please use `!!` instead.
## 
##   # Bad:
##   dplyr::select(data, !!!enquo(x))
## 
##   # Good:
##   dplyr::select(data, !!enquo(x))    # Unquote single quosure
##   dplyr::select(data, !!!enquos(x))  # Splice list of quosures
## 
## This warning is displayed once per session.

## # A tibble: 841 x 7
##    gene  log2FoldChange     padj log2FoldChange_ log2FoldChange_
##    <chr>          <dbl>    <dbl>            <dbl>            <dbl>
##  1 FBgn          0.544 1.87e- 5            0.544           -0.579
##  2 FBgn          0.273 4.17e- 2            0.273           -0.285
##  3 FBgn          2.06  6.95e-46            2.06            -2.33 
##  4 FBgn          0.675 2.75e- 2           -0.490            0.675
##  5 FBgn          0.974 7.74e-10            0.974           -1.11 
##  6 FBgn          0.381 5.82e- 3           -0.361            0.381
##  7 FBgn          0.449 3.54e- 5            0.449           -0.469
##  8 FBgn          0.356 3.02e- 2            0.356           -0.385
##  9 FBgn          0.367 3.33e- 2           -0.341            0.367
## 10 FBgn          0.418 7.95e- 3           -0.390            0.418
## #  with 831 more rows, and 2 more variables:
## #   padj_condition_treated_vs_untreated <dbl>,
## #   padj_condition_untreated_vs_treated <dbl>
…
Additional questions

How about try to obtain these genes without additional packages?

Can you convert res into tibble?

rownames_to_column(as.data.frame(res), var ="Gene") %>% as_tibble()

## # A tibble: 9,921 x 7
##    Gene        baseMean log2FoldChange lfcSE    stat      pvalue       padj
##    <chr>          <dbl>          <dbl> <dbl>   <dbl>       <dbl>      <dbl>
##  1 FBgn0000008    95.1         0.00228 0.224  0.0102 0.992        0.997    
##  2 FBgn0000014     1.06       -0.495   2.14  -0.231  0.817       NA        
##  3 FBgn0000017  4353.         -0.240   0.126 -1.90   0.0576       0.288    
##  4 FBgn0000018   419.         -0.105   0.148 -0.705  0.481        0.827    
##  5 FBgn0000024     6.41        0.211   0.690  0.306  0.760        0.944    
##  6 FBgn0000032   990.         -0.0918  0.148 -0.621  0.534        0.854    
##  7 FBgn0000037    14.1         0.463   0.490  0.944  0.345        0.744    
##  8 FBgn0000042 82208.          0.315   0.141  2.24   0.0253       0.167    
##  9 FBgn0000043 31162.          0.620   0.124  5.01   0.000000540  0.0000187
## 10 FBgn0000044    27.0         0.415   0.413  1.00   0.315        0.720    
## #  with 9,911 more rows
…
